{
  "src_folders" : ["robots"],
  "output_folder" : "reports",
  "custom_commands_path" : "",
  "custom_assertions_path" : "",
  "page_objects_path" : "",
  "globals_path" : "",

  "selenium" : {
    "start_process" : true,
    "server_path" : "./bin/selenium-server-standalone-3.14.0.jar",
    "log_path" : "./reports",
    "port" : 4444,
    "cli_args" : {
      "webdriver.chrome.driver" : "",
      "webdriver.gecko.driver" : "./bin/geckodriver",
      "webdriver.edge.driver" : ""
    }
  },

  "test_settings" : {
    "default" : {
      "launch_url" : "http://localhost",
      "selenium_port"  : 4444,
      "selenium_host"  : "localhost",
      "silent": false,
      "screenshots" : {
        "enabled" : true,
        "path" : "./screenshot"
      },
      "desiredCapabilities": {
        "browserName": "firefox",
        "marionette": true,
        "javascriptEnabled": true,
        "acceptSslCerts": true
      }
    },

    "chrome" : {
      "desiredCapabilities": {
        "browserName": "chrome"
      }
    },

    "edge" : {
      "desiredCapabilities": {
        "browserName": "MicrosoftEdge"
      }
    }
  }
}